{
    "general": {
        "token": "No",
        "prefix": ",",
        "name": "BotNite",
        "ownerId": "164469624463818752",
        "failPerm": "No\n\nSent from my SouljaPhone."
    },
    "admin": {
        "logid": "667553151536201758",
        "skyblock": "No",
        "elevated": [
            "164469624463818752"
        ]
    }
}